module bitbucket.org/olympiaschooldistrict/logs

go 1.17

require (
	cloud.google.com/go v0.92.2 // indirect
	cloud.google.com/go/errorreporting v0.1.0
	cloud.google.com/go/logging v1.4.2
	github.com/golang/groupcache v0.0.0-20200121045136-8c9f03a8e57e // indirect
	github.com/golang/protobuf v1.5.2 // indirect
	github.com/google/go-cmp v0.5.6 // indirect
	github.com/googleapis/gax-go/v2 v2.0.5 // indirect
	go.opencensus.io v0.23.0 // indirect
	golang.org/x/net v0.0.0-20210503060351-7fd8e65b6420 // indirect
	golang.org/x/oauth2 v0.0.0-20210805134026-6f1e6394065a // indirect
	golang.org/x/sync v0.0.0-20210220032951-036812b2e83c // indirect
	golang.org/x/sys v0.0.0-20210806184541-e5e7981a1069 // indirect
	golang.org/x/text v0.3.6 // indirect
	google.golang.org/api v0.54.0 // indirect
	google.golang.org/appengine v1.6.7 // indirect
	google.golang.org/genproto v0.0.0-20210813162853-db860fec028c // indirect
	google.golang.org/grpc v1.39.1 // indirect
	google.golang.org/protobuf v1.27.1 // indirect
)
